<?xml version="1.0" encoding="UTF-8" standalone="no"?>
<!DOCTYPE svg PUBLIC "-//W3C//DTD SVG 1.1//EN" "http://www.w3.org/Graphics/SVG/1.1/DTD/svg11.dtd">
<svg width="95px" height="94px" version="1.1" xmlns="http://www.w3.org/2000/svg" xmlns:xlink="http://www.w3.org/1999/xlink" xml:space="preserve" xmlns:serif="http://www.serif.com/" style="fill-rule:evenodd;clip-rule:evenodd;stroke-linejoin:round;stroke-miterlimit:2;">
    <g transform="matrix(1,0,0,1,-908.875,-874.606)">
        <g id="chat-box" transform="matrix(0.656013,0,0,0.670644,264.055,406.976)">
            <g id="chat-box-empty">
                <g id="chat-box1" serif:id="chat-box">
                    <path d="M1017.23,802.993L999.922,819.368L999.922,713.9L1122.27,713.9L1122.27,802.993L1017.23,802.993Z" style="fill:white;"/>
                    <path d="M1019.7,808.958L993.824,833.432L993.824,707.936L1128.37,707.936L1128.37,808.958L1019.7,808.958ZM1017.23,802.993L1122.27,802.993L1122.27,713.9L999.922,713.9L999.922,819.368L1017.23,802.993Z"/>
                </g>
            </g>
        </g>
    </g>
</svg>
