<?xml version="1.0" encoding="UTF-8" standalone="no"?>
<!DOCTYPE svg PUBLIC "-//W3C//DTD SVG 1.1//EN" "http://www.w3.org/Graphics/SVG/1.1/DTD/svg11.dtd">
<svg width="117px" height="117px" version="1.1" xmlns="http://www.w3.org/2000/svg" xmlns:xlink="http://www.w3.org/1999/xlink" xml:space="preserve" xmlns:serif="http://www.serif.com/" style="fill-rule:evenodd;clip-rule:evenodd;stroke-miterlimit:10;">
    <g transform="matrix(1,0,0,1,-1002.94,-858.534)">
        <g id="chat-box-plus">
            <g id="chat-box" transform="matrix(0.656013,0,0,0.670644,363.616,406.976)">
                <path d="M1017.23,802.993L999.922,819.368L999.922,713.9L1122.27,713.9L1122.27,802.993L1017.23,802.993Z" style="fill:white;"/>
                <path d="M1019.7,808.958L993.824,833.432L993.824,707.936L1128.37,707.936L1128.37,808.958L1019.7,808.958ZM1017.23,802.993L1122.27,802.993L1122.27,713.9L999.922,713.9L999.922,819.368L1017.23,802.993Z"/>
            </g>
            <g id="plus" transform="matrix(1,0,0,1,0,9.96404)">
                <g transform="matrix(6.12323e-17,0.529301,-1,3.24103e-17,1967.51,345.056)">
                    <path d="M1027.23,906.598L1094.61,906.598" style="fill:none;stroke:black;stroke-width:5px;"/>
                </g>
                <g transform="matrix(-0.529301,-3.59987e-17,1.51287e-16,-1,1622.51,1813.2)">
                    <path d="M1027.23,906.598L1094.61,906.598" style="fill:none;stroke:black;stroke-width:5px;"/>
                </g>
            </g>
        </g>
    </g>
</svg>
