<?xml version="1.0" encoding="utf-8"?>
<!-- Generator: Adobe Illustrator 27.9.0, SVG Export Plug-In . SVG Version: 6.00 Build 0)  -->
<svg version="1.1" id="Calque_1" xmlns="http://www.w3.org/2000/svg" xmlns:xlink="http://www.w3.org/1999/xlink" x="0px" y="0px"
	 viewBox="0 0 204.39 202.95" style="enable-background:new 0 0 204.39 202.95;" xml:space="preserve">
<g>
	<polygon points="120.07,135.85 123.83,135.85 133.95,101.63 110.07,101.63 	"/>
	<polygon points="81.02,67.55 71.02,101.77 94.9,101.77 84.78,67.55 	"/>
	<path d="M102.59,22.72c-43.58,0-78.91,35.33-78.91,78.91s35.33,78.91,78.91,78.91s78.91-35.33,78.91-78.91
		S146.18,22.72,102.59,22.72z M149.54,101.63l-3.89,13.05l-7.33,25.04H121.4h-13.41h-2.05l-7.26-24.91H67.24l-7.26,24.91H44.34
		l22.55-76.06h31.05v0h1.1l7.27,24.91h31.43l7.26-24.91h15.86L149.54,101.63z"/>
</g>
</svg>
